EESchema Schematic File Version 4
LIBS:dodgypla-cache
EELAYER 29 0
EELAYER END
$Descr A4 11693 8268
encoding utf-8
Sheet 1 1
Title "DodgyPLA"
Date ""
Rev "1.2"
Comp ""
Comment1 "Commodore 64 PLA Replacement"
Comment2 "http://gitlab.com/kludge/dodgypla"
Comment3 "http://github.com/desaster/c64-dodgypla"
Comment4 ""
$EndDescr
Wire Wire Line
	2500 3950 3000 3950
Wire Wire Line
	3000 3950 3000 3700
$Comp
L power:+5V #PWR01
U 1 1 5A0C762B
P 3000 3700
F 0 "#PWR01" H 3000 3550 50  0001 C CNN
F 1 "+5V" H 3000 3840 50  0000 C CNN
F 2 "" H 3000 3700 50  0001 C CNN
F 3 "" H 3000 3700 50  0001 C CNN
	1    3000 3700
	1    0    0    -1  
$EndComp
Wire Wire Line
	1800 5250 1400 5250
Wire Wire Line
	1400 5250 1400 5650
$Comp
L power:GND #PWR02
U 1 1 5A0C7674
P 1400 5650
F 0 "#PWR02" H 1400 5400 50  0001 C CNN
F 1 "GND" H 1400 5500 50  0000 C CNN
F 2 "" H 1400 5650 50  0001 C CNN
F 3 "" H 1400 5650 50  0001 C CNN
	1    1400 5650
	1    0    0    -1  
$EndComp
Text Label 1800 4050 2    60   ~ 0
PLA_A13
Text Label 1800 4150 2    60   ~ 0
PLA_A14
Text Label 1800 4250 2    60   ~ 0
PLA_A15
Text Label 1800 4350 2    60   ~ 0
PLA_VA14
Text Label 1800 4450 2    60   ~ 0
PLA_CHAREN
Text Label 1800 4550 2    60   ~ 0
PLA_HIRAM
Text Label 1800 4650 2    60   ~ 0
PLA_LORAM
Text Label 1800 4750 2    60   ~ 0
PLA_CAS
Text Label 1800 4850 2    60   ~ 0
PLA_ROMH
Text Label 1800 4950 2    60   ~ 0
PLA_ROML
Text Label 1800 5050 2    60   ~ 0
PLA_IO
Text Label 1800 5150 2    60   ~ 0
PLA_GRW
Text Label 2500 4050 0    60   ~ 0
PLA_A12
Text Label 2500 4150 0    60   ~ 0
PLA_BA
Text Label 2500 4250 0    60   ~ 0
PLA_AEC
Text Label 2500 4350 0    60   ~ 0
PLA_RW
Text Label 2500 4450 0    60   ~ 0
PLA_EXROM
Text Label 2500 4550 0    60   ~ 0
PLA_GAME
Text Label 2500 4650 0    60   ~ 0
PLA_VA13
Text Label 2500 4750 0    60   ~ 0
PLA_VA12
Text Label 2500 4950 0    60   ~ 0
PLA_CASRAM
Text Label 2500 5050 0    60   ~ 0
PLA_BASIC
Text Label 2500 5150 0    60   ~ 0
PLA_KERNAL
Text Label 2500 5250 0    60   ~ 0
PLA_CHAROM
Text Label 6850 4750 0    60   ~ 0
JTAG_TDO
Text Label 6850 4450 0    60   ~ 0
JTAG_TDI
Text Label 6850 4550 0    60   ~ 0
JTAG_TMS
Text Label 6850 4650 0    60   ~ 0
JTAG_TCK
$Comp
L Device:C C3
U 1 1 5A0C905D
P 8250 3400
F 0 "C3" H 8275 3500 50  0000 L CNN
F 1 "0.1uF" H 8275 3300 50  0000 L CNN
F 2 "Capacitor_SMD:C_0805_2012Metric_Pad1.15x1.40mm_HandSolder" H 8288 3250 50  0001 C CNN
F 3 "" H 8250 3400 50  0001 C CNN
	1    8250 3400
	1    0    0    -1  
$EndComp
$Comp
L power:GND #PWR06
U 1 1 5A0C90C1
P 8250 3550
F 0 "#PWR06" H 8250 3300 50  0001 C CNN
F 1 "GND" H 8250 3400 50  0000 C CNN
F 2 "" H 8250 3550 50  0001 C CNN
F 3 "" H 8250 3550 50  0001 C CNN
	1    8250 3550
	1    0    0    -1  
$EndComp
Text Notes 1000 3400 0    60   ~ 0
Pin naming based on:\nhttp://www.zimmers.net/cbmpics/cbm/c64/pla.txt
Text Label 4850 2800 2    60   ~ 0
PLA_LORAM
Text Label 4850 3000 2    60   ~ 0
PLA_CAS
Text Label 4850 3200 2    60   ~ 0
PLA_ROMH
Text Label 4850 3400 2    60   ~ 0
PLA_ROML
Text Label 4850 3500 2    60   ~ 0
PLA_IO
Text Label 4850 3600 2    60   ~ 0
PLA_GRW
Text Label 4850 3700 2    60   ~ 0
PLA_CHAROM
Text Label 4850 3800 2    60   ~ 0
PLA_KERNAL
Text Label 4850 3900 2    60   ~ 0
PLA_CASRAM
Text Label 4850 4000 2    60   ~ 0
PLA_BASIC
Text Label 4850 4100 2    60   ~ 0
PLA_VA12
Text Label 4850 4200 2    60   ~ 0
PLA_VA13
$Comp
L power:GND #PWR07
U 1 1 5A0CABE7
P 5450 5150
F 0 "#PWR07" H 5450 4900 50  0001 C CNN
F 1 "GND" H 5450 5000 50  0000 C CNN
F 2 "" H 5450 5150 50  0001 C CNN
F 3 "" H 5450 5150 50  0001 C CNN
	1    5450 5150
	1    0    0    -1  
$EndComp
Text Label 4850 4300 2    60   ~ 0
PLA_GAME
Text Notes 3950 1900 0    60   ~ 0
Pinout based on:\nhttp://www.nightfallcrew.com/18/11/2009/xilink-cpld-xc9536-replacement-pla-for-commodore-64/
Text Label 6850 4300 0    60   ~ 0
PLA_BA
Text Label 6850 4200 0    60   ~ 0
PLA_RW
Text Label 6850 4100 0    60   ~ 0
PLA_EXROM
Text Label 6850 4000 0    60   ~ 0
PLA_AEC
Text Label 6850 3900 0    60   ~ 0
PLA_A12
Text Label 6850 3800 0    60   ~ 0
PLA_CHAREN
Text Label 6850 3700 0    60   ~ 0
PLA_A13
Text Label 6850 3600 0    60   ~ 0
PLA_A14
Text Label 6850 3500 0    60   ~ 0
PLA_A15
Text Label 6850 3400 0    60   ~ 0
PLA_VA14
Text Label 6850 3000 0    60   ~ 0
PLA_HIRAM
NoConn ~ 2500 4850
$Comp
L power:+5V #PWR08
U 1 1 5A0CBA4B
P 1500 2000
F 0 "#PWR08" H 1500 1850 50  0001 C CNN
F 1 "+5V" H 1500 2140 50  0000 C CNN
F 2 "" H 1500 2000 50  0001 C CNN
F 3 "" H 1500 2000 50  0001 C CNN
	1    1500 2000
	1    0    0    -1  
$EndComp
$Comp
L power:PWR_FLAG #FLG09
U 1 1 5A0CBA6C
P 1500 2000
F 0 "#FLG09" H 1500 2075 50  0001 C CNN
F 1 "PWR_FLAG" H 1500 2150 50  0000 C CNN
F 2 "" H 1500 2000 50  0001 C CNN
F 3 "" H 1500 2000 50  0001 C CNN
	1    1500 2000
	-1   0    0    1   
$EndComp
$Comp
L power:+3.3V #PWR010
U 1 1 5A0C9098
P 8250 3250
F 0 "#PWR010" H 8250 3100 50  0001 C CNN
F 1 "+3.3V" H 8250 3390 50  0000 C CNN
F 2 "" H 8250 3250 50  0001 C CNN
F 3 "" H 8250 3250 50  0001 C CNN
	1    8250 3250
	1    0    0    -1  
$EndComp
$Comp
L power:GND #PWR011
U 1 1 5A0CBEB0
P 2000 2000
F 0 "#PWR011" H 2000 1750 50  0001 C CNN
F 1 "GND" H 2000 1850 50  0000 C CNN
F 2 "" H 2000 2000 50  0001 C CNN
F 3 "" H 2000 2000 50  0001 C CNN
	1    2000 2000
	1    0    0    -1  
$EndComp
$Comp
L power:PWR_FLAG #FLG012
U 1 1 5A0CBEE3
P 2000 2000
F 0 "#FLG012" H 2000 2075 50  0001 C CNN
F 1 "PWR_FLAG" H 2000 2150 50  0000 C CNN
F 2 "" H 2000 2000 50  0001 C CNN
F 3 "" H 2000 2000 50  0001 C CNN
	1    2000 2000
	1    0    0    -1  
$EndComp
$Comp
L xc9536xl-10vq44c:XC9536XL-10VQ44C U2
U 1 1 5A6F8821
P 5850 3600
F 0 "U2" H 5850 3500 60  0000 C CNN
F 1 "XC9536XL-10VQ44C" H 5850 3700 60  0000 C CNN
F 2 "dodgyPLA_footprints:LQFP-44_10x10mm_Pitch0.8mm" H 5850 3450 60  0001 C CNN
F 3 "" H 5850 3450 60  0001 C CNN
	1    5850 3600
	1    0    0    -1  
$EndComp
NoConn ~ 6850 2700
NoConn ~ 6850 2800
NoConn ~ 6850 3100
NoConn ~ 6850 3200
NoConn ~ 6850 3300
NoConn ~ 4850 2900
NoConn ~ 4850 2700
NoConn ~ 4850 3100
NoConn ~ 4850 3300
$Comp
L power:+3V3 #PWR013
U 1 1 5A6F9301
P 6300 2300
F 0 "#PWR013" H 6300 2150 50  0001 C CNN
F 1 "+3V3" H 6300 2440 50  0000 C CNN
F 2 "" H 6300 2300 50  0001 C CNN
F 3 "" H 6300 2300 50  0001 C CNN
	1    6300 2300
	1    0    0    -1  
$EndComp
Wire Wire Line
	6300 2400 6300 2300
Wire Wire Line
	5450 5050 5450 5150
NoConn ~ 6850 2900
$Comp
L Device:C C4
U 1 1 5D529056
P 8700 3400
F 0 "C4" H 8725 3500 50  0000 L CNN
F 1 "0.1uF" H 8725 3300 50  0000 L CNN
F 2 "Capacitor_SMD:C_0805_2012Metric_Pad1.15x1.40mm_HandSolder" H 8738 3250 50  0001 C CNN
F 3 "" H 8700 3400 50  0001 C CNN
	1    8700 3400
	1    0    0    -1  
$EndComp
$Comp
L power:GND #PWR0101
U 1 1 5D529060
P 8700 3550
F 0 "#PWR0101" H 8700 3300 50  0001 C CNN
F 1 "GND" H 8700 3400 50  0000 C CNN
F 2 "" H 8700 3550 50  0001 C CNN
F 3 "" H 8700 3550 50  0001 C CNN
	1    8700 3550
	1    0    0    -1  
$EndComp
$Comp
L power:+3.3V #PWR0102
U 1 1 5D52906A
P 8700 3250
F 0 "#PWR0102" H 8700 3100 50  0001 C CNN
F 1 "+3.3V" H 8700 3390 50  0000 C CNN
F 2 "" H 8700 3250 50  0001 C CNN
F 3 "" H 8700 3250 50  0001 C CNN
	1    8700 3250
	1    0    0    -1  
$EndComp
$Comp
L Connector:Conn_01x04_Male J2
U 1 1 5D52A7C3
P 9150 5550
F 0 "J2" H 9258 5831 50  0000 C CNN
F 1 "Conn_01x04_Male" H 9258 5740 50  0000 C CNN
F 2 "Connector_PinHeader_2.54mm:PinHeader_1x04_P2.54mm_Vertical" H 9150 5550 50  0001 C CNN
F 3 "~" H 9150 5550 50  0001 C CNN
	1    9150 5550
	1    0    0    -1  
$EndComp
$Comp
L Connector:Conn_01x03_Male J3
U 1 1 5D52B1E1
P 8150 5550
F 0 "J3" H 8258 5831 50  0000 C CNN
F 1 "Conn_01x03_Male" H 8258 5740 50  0000 C CNN
F 2 "Connector_PinHeader_2.54mm:PinHeader_1x03_P2.54mm_Vertical" H 8150 5550 50  0001 C CNN
F 3 "~" H 8150 5550 50  0001 C CNN
	1    8150 5550
	1    0    0    -1  
$EndComp
Text Label 9350 5450 0    50   ~ 0
JTAG_TMS
Text Label 9350 5550 0    50   ~ 0
JTAG_TDI
Text Label 9350 5650 0    50   ~ 0
JTAG_TDO
Text Label 9350 5750 0    50   ~ 0
JTAG_TCK
$Comp
L power:+3.3V #PWR0103
U 1 1 5D52C9C9
P 8350 5450
F 0 "#PWR0103" H 8350 5300 50  0001 C CNN
F 1 "+3.3V" V 8365 5578 50  0000 L CNN
F 2 "" H 8350 5450 50  0001 C CNN
F 3 "" H 8350 5450 50  0001 C CNN
	1    8350 5450
	0    1    1    0   
$EndComp
$Comp
L power:+5V #PWR0104
U 1 1 5D52D6A1
P 8350 5550
F 0 "#PWR0104" H 8350 5400 50  0001 C CNN
F 1 "+5V" V 8365 5678 50  0000 L CNN
F 2 "" H 8350 5550 50  0001 C CNN
F 3 "" H 8350 5550 50  0001 C CNN
	1    8350 5550
	0    1    1    0   
$EndComp
$Comp
L power:GND #PWR0105
U 1 1 5D52DF44
P 8350 5650
F 0 "#PWR0105" H 8350 5400 50  0001 C CNN
F 1 "GND" V 8355 5522 50  0000 R CNN
F 2 "" H 8350 5650 50  0001 C CNN
F 3 "" H 8350 5650 50  0001 C CNN
	1    8350 5650
	0    -1   -1   0   
$EndComp
$Comp
L Graphics:Graphic_placeholder GFX1
U 1 1 5D781532
P 8300 1050
F 0 "GFX1" H 8578 1096 50  0000 L CNN
F 1 "DodgyPLA" H 8578 1005 50  0000 L CNN
F 2 "DodgyPLA_logo:DodgyPLA_logo" H 8300 950 50  0001 C CNN
F 3 "" H 8300 950 50  0001 C CNN
	1    8300 1050
	1    0    0    -1  
$EndComp
$Comp
L Graphics:Graphic_placeholder GFX2
U 1 1 5D781DAB
P 9700 1050
F 0 "GFX2" H 9978 1096 50  0000 L CNN
F 1 "Kludge" H 9978 1005 50  0000 L CNN
F 2 "DodgyPLA_logo:Kludge_logo" H 9700 950 50  0001 C CNN
F 3 "" H 9700 950 50  0001 C CNN
	1    9700 1050
	1    0    0    -1  
$EndComp
$Comp
L Regulator_Linear:AMS1117-3.3 U1
U 1 1 5D78D691
P 1750 1000
F 0 "U1" H 1750 1242 50  0000 C CNN
F 1 "AMS1117-3.3" H 1750 1151 50  0000 C CNN
F 2 "Package_TO_SOT_SMD:SOT-223-3_TabPin2" H 1750 1200 50  0001 C CNN
F 3 "http://www.advanced-monolithic.com/pdf/ds1117.pdf" H 1850 750 50  0001 C CNN
	1    1750 1000
	1    0    0    -1  
$EndComp
Wire Wire Line
	1350 1000 1450 1000
Connection ~ 1350 1000
Wire Wire Line
	1050 1000 1350 1000
$Comp
L power:GND #PWR05
U 1 1 5A0C820D
P 1750 1500
F 0 "#PWR05" H 1750 1250 50  0001 C CNN
F 1 "GND" H 1750 1350 50  0000 C CNN
F 2 "" H 1750 1500 50  0001 C CNN
F 3 "" H 1750 1500 50  0001 C CNN
	1    1750 1500
	1    0    0    -1  
$EndComp
$Comp
L Device:C C1
U 1 1 5A0C8111
P 1350 1150
F 0 "C1" H 1375 1250 50  0000 L CNN
F 1 "3.3uF" H 1375 1050 50  0000 L CNN
F 2 "Capacitor_SMD:C_0805_2012Metric_Pad1.15x1.40mm_HandSolder" H 1388 1000 50  0001 C CNN
F 3 "" H 1350 1150 50  0001 C CNN
	1    1350 1150
	1    0    0    -1  
$EndComp
$Comp
L power:+5V #PWR04
U 1 1 5A0C80E4
P 1050 1000
F 0 "#PWR04" H 1050 850 50  0001 C CNN
F 1 "+5V" H 1050 1140 50  0000 C CNN
F 2 "" H 1050 1000 50  0001 C CNN
F 3 "" H 1050 1000 50  0001 C CNN
	1    1050 1000
	1    0    0    -1  
$EndComp
Wire Wire Line
	2150 1000 2450 1000
Connection ~ 2150 1000
Wire Wire Line
	2050 1000 2150 1000
$Comp
L Device:C C2
U 1 1 5A0C8072
P 2150 1150
F 0 "C2" H 2175 1250 50  0000 L CNN
F 1 "3.3uF" H 2175 1050 50  0000 L CNN
F 2 "Capacitor_SMD:C_0805_2012Metric_Pad1.15x1.40mm_HandSolder" H 2188 1000 50  0001 C CNN
F 3 "" H 2150 1150 50  0001 C CNN
	1    2150 1150
	1    0    0    -1  
$EndComp
$Comp
L power:+3.3V #PWR03
U 1 1 5A0C804E
P 2450 1000
F 0 "#PWR03" H 2450 850 50  0001 C CNN
F 1 "+3.3V" H 2450 1140 50  0000 C CNN
F 2 "" H 2450 1000 50  0001 C CNN
F 3 "" H 2450 1000 50  0001 C CNN
	1    2450 1000
	1    0    0    -1  
$EndComp
Wire Wire Line
	2150 1300 1750 1300
Connection ~ 1750 1300
Wire Wire Line
	1750 1300 1350 1300
Wire Wire Line
	1750 1300 1750 1500
$Comp
L C64_components:906114-01_PLA U3
U 1 1 5D7A40FC
P 2150 4600
F 0 "U3" H 2150 5515 50  0000 C CNN
F 1 "906114-01_PLA" H 2150 5424 50  0000 C CNN
F 2 "dodgyPLA_footprints:DIP-28_W15.24mm_noSilk" H 1950 5050 50  0001 C CNN
F 3 "" H 1950 5050 50  0001 C CNN
	1    2150 4600
	1    0    0    -1  
$EndComp
Wire Wire Line
	5450 5050 5650 5050
Connection ~ 5850 5050
Wire Wire Line
	5850 5050 6050 5050
Connection ~ 5650 5050
Wire Wire Line
	5650 5050 5850 5050
Wire Wire Line
	5650 2400 5850 2400
Connection ~ 5850 2400
Wire Wire Line
	5850 2400 6050 2400
Connection ~ 6050 2400
Wire Wire Line
	6050 2400 6300 2400
$EndSCHEMATC
