(module LOGO (layer F.Cu)
  (at 0 0)
 (fp_text reference "G***" (at 0 0) (layer F.SilkS) hide
  (effects (font (thickness 0.3)))
  )
  (fp_text value "LOGO" (at 0.75 0) (layer F.SilkS) hide
  (effects (font (thickness 0.3)))
  )
  (fp_poly (pts (xy -3.259349 -1.100350) (xy -2.918690 -0.754370) (xy -2.626802 -0.446150) (xy -2.402439 -0.196468) (xy -2.264352 -0.026103) (xy -2.228975 0.041380) (xy -2.319914 0.079709) (xy -2.544590 0.117496)
     (xy -2.867457 0.149966) (xy -3.181793 0.169333) (xy -4.106333 0.211667) (xy -4.130284 1.113843) (xy -4.149072 1.557965) (xy -4.179320 1.851630) (xy -4.223713 2.013489) (xy -4.266260 2.059008)
     (xy -4.367556 2.018237) (xy -4.561884 1.871882) (xy -4.827020 1.638413) (xy -5.140738 1.336300) (xy -5.164438 1.312563) (xy -5.526193 0.937476) (xy -5.763949 0.662163) (xy -5.884191 0.478470)
     (xy -5.898952 0.388565) (xy -5.835303 0.287733) (xy -5.738114 0.273731) (xy -5.585955 0.356953) (xy -5.357394 0.547793) (xy -5.128981 0.762000) (xy -4.884529 0.990898) (xy -4.685703 1.166237)
     (xy -4.563811 1.260847) (xy -4.543643 1.270000) (xy -4.518196 1.191824) (xy -4.498735 0.983212) (xy -4.488300 0.683033) (xy -4.487333 0.550333) (xy -4.487333 -0.169333) (xy -3.767667 -0.169333)
     (xy -3.442451 -0.176461) (xy -3.193724 -0.195481) (xy -3.060354 -0.222850) (xy -3.048000 -0.234952) (xy -3.104569 -0.318134) (xy -3.257503 -0.491651) (xy -3.481645 -0.727914) (xy -3.683305 -0.931636)
     (xy -4.318609 -1.562701) (xy -5.195998 -0.688298) (xy -5.598630 -0.299263) (xy -5.905721 -0.033163) (xy -6.129715 0.117498) (xy -6.283054 0.160221) (xy -6.378182 0.102504) (xy -6.406802 0.041380)
     (xy -6.358928 -0.043244) (xy -6.208486 -0.225226) (xy -5.974222 -0.483791) (xy -5.674884 -0.798160) (xy -5.376651 -1.100350) (xy -4.318000 -2.156459) (xy -3.259349 -1.100350) )(layer F.SilkS) (width  0.010000)
  )
  (fp_poly (pts (xy -2.327926 0.611445) (xy -2.209969 0.658354) (xy -2.201333 0.677333) (xy -2.268904 0.754640) (xy -2.315211 0.762000) (xy -2.454223 0.820009) (xy -2.578422 0.927011) (xy -2.655501 1.026899)
     (xy -2.664085 1.120192) (xy -2.590691 1.251479) (xy -2.421835 1.465350) (xy -2.412011 1.477344) (xy -2.230764 1.684226) (xy -2.085796 1.824088) (xy -2.021801 1.862667) (xy -1.949433 1.927393)
     (xy -1.947333 1.947333) (xy -2.022046 2.002089) (xy -2.206980 2.030766) (xy -2.260201 2.032000) (xy -2.573833 1.971548) (xy -2.809651 1.805339) (xy -2.989825 1.669055) (xy -3.104982 1.646265)
     (xy -3.128240 1.730535) (xy -3.065244 1.866517) (xy -3.004534 1.994156) (xy -3.054517 2.032641) (xy -3.068449 2.033156) (xy -3.238054 2.051602) (xy -3.344333 2.071554) (xy -3.567439 2.071579)
     (xy -3.677380 2.042670) (xy -3.779730 1.971192) (xy -3.740880 1.914608) (xy -3.685734 1.800245) (xy -3.652404 1.578114) (xy -3.641649 1.307651) (xy -3.654226 1.048292) (xy -3.690893 0.859471)
     (xy -3.726715 0.803480) (xy -3.788213 0.716823) (xy -3.707435 0.643004) (xy -3.511399 0.598630) (xy -3.383787 0.592667) (xy -3.171584 0.600079) (xy -3.087518 0.649589) (xy -3.090398 0.782108)
     (xy -3.106730 0.867833) (xy -3.134766 1.046006) (xy -3.107554 1.087141) (xy -3.019946 1.026800) (xy -2.903409 0.861576) (xy -2.878667 0.751633) (xy -2.846231 0.646819) (xy -2.720549 0.600723)
     (xy -2.540000 0.592667) (xy -2.327926 0.611445) )(layer F.SilkS) (width  0.010000)
  )
  (fp_poly (pts (xy -1.197846 0.607896) (xy -1.044569 0.646835) (xy -1.016000 0.677333) (xy -1.080429 0.759540) (xy -1.100667 0.762000) (xy -1.145710 0.839162) (xy -1.176267 1.040930) (xy -1.185333 1.272657)
     (xy -1.158980 1.624570) (xy -1.079059 1.816809) (xy -0.944283 1.850764) (xy -0.758328 1.732343) (xy -0.617488 1.639317) (xy -0.536061 1.637050) (xy -0.526272 1.742443) (xy -0.578898 1.904923)
     (xy -0.661258 2.049611) (xy -0.739018 2.102053) (xy -0.851601 2.087518) (xy -1.081415 2.063923) (xy -1.354667 2.038553) (xy -1.633632 2.003441) (xy -1.788054 1.961426) (xy -1.799167 1.921170)
     (xy -1.741579 1.803881) (xy -1.705933 1.579798) (xy -1.693351 1.308210) (xy -1.704957 1.048405) (xy -1.741876 0.859672) (xy -1.778000 0.804333) (xy -1.866585 0.708387) (xy -1.799297 0.636863)
     (xy -1.588789 0.597672) (xy -1.439333 0.592667) (xy -1.197846 0.607896) )(layer F.SilkS) (width  0.010000)
  )
  (fp_poly (pts (xy 1.187345 0.620720) (xy 1.271625 0.692478) (xy 1.207907 0.789342) (xy 1.185333 0.804333) (xy 1.137635 0.912120) (xy 1.106928 1.131879) (xy 1.100667 1.304208) (xy 1.076860 1.630798)
     (xy 0.999125 1.830977) (xy 0.952500 1.882455) (xy 0.713543 2.009468) (xy 0.403566 2.072972) (xy 0.127000 2.056569) (xy -0.130074 1.941215) (xy -0.278826 1.734039) (xy -0.336473 1.407227)
     (xy -0.338667 1.304208) (xy -0.353481 1.042919) (xy -0.391465 0.857126) (xy -0.423333 0.804333) (xy -0.511237 0.707351) (xy -0.445580 0.633955) (xy -0.241705 0.595652) (xy -0.141111 0.592667)
     (xy 0.150718 0.610303) (xy 0.287134 0.667191) (xy 0.278752 0.769298) (xy 0.248091 0.811452) (xy 0.185558 0.988073) (xy 0.182152 1.240952) (xy 0.229084 1.498117) (xy 0.317568 1.687594)
     (xy 0.359833 1.726611) (xy 0.554368 1.776287) (xy 0.709236 1.674254) (xy 0.807847 1.436557) (xy 0.830930 1.271041) (xy 0.827831 1.026099) (xy 0.788022 0.849940) (xy 0.767430 0.818230)
     (xy 0.682800 0.688764) (xy 0.751192 0.615455) (xy 0.973667 0.592667) (xy 1.187345 0.620720) )(layer F.SilkS) (width  0.010000)
  )
  (fp_poly (pts (xy 2.515537 0.619358) (xy 2.801383 0.710552) (xy 2.969153 0.882931) (xy 3.041029 1.153178) (xy 3.048000 1.313539) (xy 2.997705 1.641402) (xy 2.838778 1.870404) (xy 2.559153 2.007640)
     (xy 2.146765 2.060206) (xy 1.792659 2.051748) (xy 1.536589 2.028317) (xy 1.421407 1.993156) (xy 1.418670 1.934046) (xy 1.442432 1.901266) (xy 1.499639 1.729870) (xy 1.517281 1.412508)
     (xy 1.516286 1.382895) (xy 2.031591 1.382895) (xy 2.040207 1.624253) (xy 2.073921 1.784272) (xy 2.088444 1.806222) (xy 2.240824 1.861227) (xy 2.397075 1.776888) (xy 2.452354 1.698899)
     (xy 2.523259 1.480370) (xy 2.540000 1.327279) (xy 2.495852 1.126355) (xy 2.388529 0.937771) (xy 2.255710 0.810413) (xy 2.135078 0.793163) (xy 2.130378 0.795859) (xy 2.079271 0.906189)
     (xy 2.045476 1.122704) (xy 2.031591 1.382895) (xy 1.516286 1.382895) (xy 1.509672 1.186250) (xy 1.476131 0.592667) (xy 2.089434 0.592667) (xy 2.515537 0.619358) )(layer F.SilkS) (width  0.010000)
  )
  (fp_poly (pts (xy 4.351129 0.590458) (xy 4.359513 0.591528) (xy 4.607810 0.652287) (xy 4.718632 0.760971) (xy 4.727287 0.792160) (xy 4.718747 0.983315) (xy 4.608768 1.048569) (xy 4.414937 0.982468)
     (xy 4.318940 0.918822) (xy 4.049325 0.719667) (xy 3.882119 0.925980) (xy 3.774779 1.159250) (xy 3.778017 1.409998) (xy 3.875228 1.627124) (xy 4.049803 1.759530) (xy 4.159033 1.778000)
     (xy 4.296572 1.736341) (xy 4.293237 1.637819) (xy 4.169833 1.534161) (xy 4.081539 1.467904) (xy 4.130172 1.413768) (xy 4.237619 1.369134) (xy 4.433840 1.329192) (xy 4.653522 1.329759)
     (xy 4.833498 1.365007) (xy 4.910603 1.429109) (xy 4.910667 1.431235) (xy 4.859729 1.524823) (xy 4.732273 1.690367) (xy 4.677833 1.754164) (xy 4.372553 1.994089) (xy 4.027031 2.074923)
     (xy 3.676321 1.997546) (xy 3.415423 1.801541) (xy 3.271118 1.523432) (xy 3.251061 1.210753) (xy 3.362906 0.911038) (xy 3.479115 0.772922) (xy 3.698080 0.626951) (xy 3.972259 0.569528)
     (xy 4.351129 0.590458) )(layer F.SilkS) (width  0.010000)
  )
  (fp_poly (pts (xy 6.176999 0.581776) (xy 6.295374 0.622894) (xy 6.361941 0.699314) (xy 6.365449 0.705751) (xy 6.410693 0.870177) (xy 6.334896 0.925863) (xy 6.177965 0.864628) (xy 5.936193 0.763534)
     (xy 5.759217 0.786657) (xy 5.675667 0.927819) (xy 5.672667 0.973667) (xy 5.716827 1.143905) (xy 5.799667 1.185333) (xy 5.912338 1.139616) (xy 5.926667 1.100667) (xy 5.991096 1.018460)
     (xy 6.011333 1.016000) (xy 6.071235 1.089457) (xy 6.096000 1.265003) (xy 6.069901 1.460532) (xy 6.011333 1.566333) (xy 5.933314 1.559620) (xy 5.926667 1.528997) (xy 5.858170 1.449478)
     (xy 5.799667 1.439333) (xy 5.697523 1.512934) (xy 5.672667 1.651000) (xy 5.704692 1.808551) (xy 5.834570 1.860553) (xy 5.898833 1.862667) (xy 6.132229 1.810396) (xy 6.280352 1.722074)
     (xy 6.417049 1.635097) (xy 6.491272 1.637050) (xy 6.501118 1.742348) (xy 6.448580 1.904591) (xy 6.366311 2.049066) (xy 6.288315 2.101413) (xy 6.177496 2.088028) (xy 5.944860 2.066702)
     (xy 5.637479 2.041703) (xy 5.588000 2.037913) (xy 5.285883 2.006000) (xy 5.098681 1.967323) (xy 5.051511 1.927424) (xy 5.058833 1.921170) (xy 5.117570 1.801342) (xy 5.152903 1.570958)
     (xy 5.164304 1.287242) (xy 5.151243 1.007421) (xy 5.113192 0.788719) (xy 5.070102 0.701302) (xy 5.067225 0.649401) (xy 5.191519 0.612610) (xy 5.460215 0.587144) (xy 5.629024 0.578535)
     (xy 5.967866 0.569233) (xy 6.176999 0.581776) )(layer F.SilkS) (width  0.010000)
  )
)
